{
    "swagger": "2.0",
    "info": {
        "description": "Kalibrr API Contract and Documentation.",
        "title": "Kalibrr API Contract",
        "termsOfService": "http://swagger.io/terms/",
        "contact": {
            "name": "Kalibrr Exodus Dev",
            "url": "http://www.google.com",
            "email": "dezan@kalibrr.com"
        },
        "license": {
            "name": "Apache 2.0",
            "url": "http://www.apache.org/licenses/LICENSE-2.0.html"
        },
        "version": "1.0"
    },
    "basePath": "/api/v1",
    "paths": {
        "/api/v1/jobseeker/profile": {
            "put": {
                "description": "This endpoint for User Login",
                "consumes": [
                    "application/json"
                ],
                "produces": [
                    "application/json"
                ],
                "tags": [
                    "Jobseeker Service"
                ],
                "summary": "Login Service",
                "parameters": [
                    {
                        "description": "Payload",
                        "name": "payload",
                        "in": "body",
                        "required": true,
                        "schema": {
                            "$ref": "#/definitions/contract.UpdateProfileRequest"
                        }
                    }
                ],
                "responses": {
                    "200": {
                        "description": "desc",
                        "schema": {
                            "$ref": "#/definitions/contract.UpdateProfileResponse"
                        }
                    }
                }
            }
        }
    },
    "definitions": {
        "contract.UpdateProfileRequest": {
            "type": "object",
            "properties": {
                "user_id": {
                    "type": "integer",
                    "example": 12
                }
            }
        },
        "contract.UpdateProfileResponse": {
            "type": "object",
            "properties": {
                "address": {
                    "type": "string",
                    "example": "jakarta"
                },
                "name": {
                    "type": "string",
                    "example": "dezan"
                }
            }
        }
    },
    "securityDefinitions": {
        "Authorization": {
            "type": "basic"
        }
    }
}